{
  "feature": {
    "name": "MapWriter 2",
    "description": "Lightweight minimap mod. If you can't resist walking to every corner of the world in games for no other purpose than filling your map, then this is the mod for you.",
    "selected": false
  }
}
