{
  "feature": {
    "name": "OptiFine",
    "description": "OptiFine is a Minecraft optimization mod. It allows Minecraft to run faster and look better with full support for HD textures and many configuration options.",
    "recommendation": "avoid",
    "selected": false
  }
}
