{
  "name" : "kirara5",
  "title" : "Kirara 5.0",
  "gameVersion" : "1.7.10",
  "features" : [ ],
  "userFiles" : {
    "include" : [
      "options.txt",
      "servers.dat",
      "optionsshaders.txt"
    ],
    "exclude" : [ ]
  },
  "launch" : {
    "flags" : [
      "-Dfml.ignoreInvalidMinecraftCertificates=true"
    ]
  }
}
